<?xml version="1.0" encoding="UTF-8"?>
<svg height="16px" viewBox="0 0 16 16" width="16px" xmlns="http://www.w3.org/2000/svg">
    <path d="m 13.226562 8.519531 l -0.328124 0.222657 c -2.707032 1.867187 -6.851563 3.34375 -10.707032 3.265624 c 0.542969 2.144532 2.71875 3.59375 2.832032 3.664063 c 0.070312 0.046875 0.582031 0.328125 2.925781 0.328125 s 2.933593 -0.28125 3.003906 -0.328125 c 0.136719 -0.085937 3.289063 -2.164063 2.933594 -5.089844 c -0.078125 -0.671875 -0.328125 -1.363281 -0.660157 -2.0625 z m 0 0"/>
    <path d="m 6.152344 0 c -0.246094 0 -0.449219 0.207031 -0.449219 0.460938 v 1.851562 c 0 1.050781 -0.847656 2.515625 -1.664063 3.90625 c -0.867187 1.464844 -1.761718 2.980469 -1.929687 4.390625 c -0.019531 0.171875 -0.027344 0.339844 -0.023437 0.507813 c 5.394531 0.191406 10.175781 -3.078126 10.226562 -3.113282 l 0.410156 -0.285156 c -0.269531 -0.503906 -0.5625 -1.003906 -0.855468 -1.5 c -0.820313 -1.390625 -1.664063 -2.855469 -1.664063 -3.90625 v -1.851562 c 0 -0.253907 -0.203125 -0.460938 -0.453125 -0.460938 z m 0 0"/>
</svg>
